%YAML 1.1
%TAG !u! tag:unity3d.com,2011:
--- !u!114 &11400000
MonoBehaviour:
  m_ObjectHideFlags: 0
  m_CorrespondingSourceObject: {fileID: 0}
  m_PrefabInstance: {fileID: 0}
  m_PrefabAsset: {fileID: 0}
  m_GameObject: {fileID: 0}
  m_Enabled: 1
  m_EditorHideFlags: 0
  m_Script: {fileID: 11500000, guid: 2a16da17d64c4834a82c5778645ec4c4, type: 3}
  m_Name: 64
  m_EditorClassIdentifier: 
  isCompleted: 0
  isActive: 0
  type: 1
  tickTo: 0
  tickUntil: 207
  amount: 0
  reward: 6
  alphaReward: 0
  inventoryItemReward: {fileID: 0}
  rewardAmount: 2
  description:
    stringVariable: {fileID: 0}
    constant: 
    locKey: 
    locValue: 
    lang: 0
    usedValue: 0
    loc: {fileID: 0}
  triggersTutorialOnCompleted: 0
  onCompletedTutorial: 0
  onCompletedTutorialDelay: 0
  triggersTutorialOnClaimed: 0
  onClaimedTutorial: 0
  onClaimedTutorialDelay: 0
  dialog: {fileID: 0}
