%YAML 1.1
%TAG !u! tag:unity3d.com,2011:
--- !u!114 &11400000
MonoBehaviour:
  m_ObjectHideFlags: 0
  m_CorrespondingSourceObject: {fileID: 0}
  m_PrefabInstance: {fileID: 0}
  m_PrefabAsset: {fileID: 0}
  m_GameObject: {fileID: 0}
  m_Enabled: 1
  m_EditorHideFlags: 0
  m_Script: {fileID: 11500000, guid: 2a16da17d64c4834a82c5778645ec4c4, type: 3}
  m_Name: 06_PickGifts
  m_EditorClassIdentifier: 
  isCompleted: 1
  isActive: 0
  type: 4
  tickTo: 7
  tickUntil: 1
  amount: 1
  reward: 0
  alphaReward: 0
  inventoryItemReward: {fileID: 0}
  rewardAmount: 150
  description:
    stringVariable: {fileID: 0}
    constant: 
    locKey: QUEST_PICK_GIFTS
    locValue: Recoge {0} regalos
    lang: 0
    usedValue: 2
    loc: {fileID: 11400000, guid: a37450c4e762fd048bf828a2e93544cc, type: 2}
  triggersTutorialOnCompleted: 0
  onCompletedTutorial: 9
  onCompletedTutorialDelay: 0
  triggersTutorialOnClaimed: 0
  onClaimedTutorial: 8
  onClaimedTutorialDelay: 0
  dialog: {fileID: 0}
  isFtue: 1
