%YAML 1.1
%TAG !u! tag:unity3d.com,2011:
--- !u!114 &11400000
MonoBehaviour:
  m_ObjectHideFlags: 0
  m_CorrespondingSourceObject: {fileID: 0}
  m_PrefabInstance: {fileID: 0}
  m_PrefabAsset: {fileID: 0}
  m_GameObject: {fileID: 0}
  m_Enabled: 1
  m_EditorHideFlags: 0
  m_Script: {fileID: 11500000, guid: 0d7ef11502feae3458856e36ff97eb2f, type: 3}
  m_Name: GreyDog
  m_EditorClassIdentifier: 
  state: 1
  level: 1
  xp: 0
  alphaID: 2
  alphaName:
    stringVariable: {fileID: 0}
    constant: 
    locKey: NAME_GREYDOG
    locValue: Akira
    lang: 0
    usedValue: 2
    loc: {fileID: 11400000, guid: a37450c4e762fd048bf828a2e93544cc, type: 2}
  description:
    stringVariable: {fileID: 0}
    constant: 
    locKey: DESCRIPTION_GREYDOG
    locValue: Valiente y solidaria
    lang: 0
    usedValue: 2
    loc: {fileID: 11400000, guid: a37450c4e762fd048bf828a2e93544cc, type: 2}
  slotIndex: -1
  giftsTracker: []
  hasLeveledUpFlag: 0
  context: {fileID: 11400000, guid: 4ef71fc2113fd614f9228e030de21e16, type: 2}
