%YAML 1.1
%TAG !u! tag:unity3d.com,2011:
--- !u!114 &11400000
MonoBehaviour:
  m_ObjectHideFlags: 0
  m_CorrespondingSourceObject: {fileID: 0}
  m_PrefabInstance: {fileID: 0}
  m_PrefabAsset: {fileID: 0}
  m_GameObject: {fileID: 0}
  m_Enabled: 1
  m_EditorHideFlags: 0
  m_Script: {fileID: 11500000, guid: 9aba3fbd806eed64cbfaff9b007d8673, type: 3}
  m_Name: StarlightParade
  m_EditorClassIdentifier: 
  localizedName:
    stringVariable: {fileID: 0}
    constant: 
    locKey: BUFF_STARLIGHT_PARADE_NAME
    locValue: bosque
    lang: 0
    usedValue: 2
    loc: {fileID: 11400000, guid: a37450c4e762fd048bf828a2e93544cc, type: 2}
  localizedDescription:
    stringVariable: {fileID: 0}
    constant: 
    locKey: BUFF_STARLIGHT_PARADE_DESC
    locValue: Aumenta la velocidad de tus mascotas un {0:0.00}%
    lang: 0
    usedValue: 2
    loc: {fileID: 11400000, guid: a37450c4e762fd048bf828a2e93544cc, type: 2}
  level: 0
  maxLevel: 100
  isPurchased: 0
  recipeComponents:
  - {fileID: 11400000, guid: 31c03145d95a5b2468879d93a83758b0, type: 2}
  - {fileID: 11400000, guid: c539307bdca98884389baea8c52bf752, type: 2}
  - {fileID: 11400000, guid: e1187ec76a5aca34296284a25b599fff, type: 2}
  - {fileID: 11400000, guid: 3909f1bbae0b3344193abad9b3a6e01c, type: 2}
  recipeRequiredConst:
  - 4
  - 3
  - 3
  - 3
  recipeRequired:
  - 4
  - 3
  - 3
  - 3
  recipeMultiplier: 2.1
  baseUpgradePrice: 120
  upgradePriceMultiplier: 3.6
  effectType: 2
  view: {fileID: 4215177543658577384, guid: 9e3487c41ee50214ca66d2e9a1b9100f, type: 3}
  evolution:
    serializedVersion: 2
    m_Curve:
    - serializedVersion: 3
      time: 0
      value: 0
      inSlope: 2
      outSlope: 2
      tangentMode: 0
      weightedMode: 0
      inWeight: 0
      outWeight: 0
    - serializedVersion: 3
      time: 0.2696789
      value: 0.6748203
      inSlope: 1.3170729
      outSlope: 1.3170729
      tangentMode: 0
      weightedMode: 0
      inWeight: 0.33333334
      outWeight: 0.33333334
    - serializedVersion: 3
      time: 1
      value: 1
      inSlope: 0
      outSlope: 0
      tangentMode: 0
      weightedMode: 0
      inWeight: 0
      outWeight: 0
    m_PreInfinity: 2
    m_PostInfinity: 2
    m_RotationOrder: 4
  baseSpeedPercentage: 0.1
  maxSpeedPercentage: 0.5
