%YAML 1.1
%TAG !u! tag:unity3d.com,2011:
--- !u!208 &8149727181377455962
NavMeshObstacle:
  m_ObjectHideFlags: 0
  m_CorrespondingSourceObject: {fileID: 0}
  m_PrefabInstance: {fileID: 0}
  m_PrefabAsset: {fileID: 0}
  m_GameObject: {fileID: 8425890105859971428}
  m_Enabled: 1
  serializedVersion: 3
  m_Shape: 1
  m_Extents: {x: 0.155, y: 0.155, z: 0.14}
  m_MoveThreshold: 0.1
  m_Carve: 0
  m_CarveOnlyStationary: 1
  m_Center: {x: 0, y: 0.15, z: 0}
  m_TimeToStationary: 0.5
--- !u!1001 &8460922371523773674
PrefabInstance:
  m_ObjectHideFlags: 0
  serializedVersion: 2
  m_Modification:
    m_TransformParent: {fileID: 0}
    m_Modifications:
    - target: {fileID: 263874311826003152, guid: 13423bf658a004649b1966be1944cd8e,
        type: 3}
      propertyPath: m_Materials.Array.data[0]
      value: 
      objectReference: {fileID: 2100000, guid: 0011ee360a723bb479729def693e8624, type: 2}
    - target: {fileID: 2858393801436677464, guid: 13423bf658a004649b1966be1944cd8e,
        type: 3}
      propertyPath: m_Materials.Array.data[0]
      value: 
      objectReference: {fileID: 2100000, guid: f52a8c992f78b1b4392582c005b64c8b, type: 2}
    - target: {fileID: 3399550903190661472, guid: 13423bf658a004649b1966be1944cd8e,
        type: 3}
      propertyPath: m_Name
      value: HolyWater
      objectReference: {fileID: 0}
    - target: {fileID: 3399550903190959424, guid: 13423bf658a004649b1966be1944cd8e,
        type: 3}
      propertyPath: m_LocalPosition.x
      value: 0
      objectReference: {fileID: 0}
    - target: {fileID: 3399550903190959424, guid: 13423bf658a004649b1966be1944cd8e,
        type: 3}
      propertyPath: m_LocalPosition.y
      value: 0
      objectReference: {fileID: 0}
    - target: {fileID: 3399550903190959424, guid: 13423bf658a004649b1966be1944cd8e,
        type: 3}
      propertyPath: m_LocalPosition.z
      value: 0
      objectReference: {fileID: 0}
    - target: {fileID: 3399550903190959424, guid: 13423bf658a004649b1966be1944cd8e,
        type: 3}
      propertyPath: m_LocalRotation.x
      value: -0
      objectReference: {fileID: 0}
    - target: {fileID: 3399550903190959424, guid: 13423bf658a004649b1966be1944cd8e,
        type: 3}
      propertyPath: m_LocalRotation.y
      value: -0
      objectReference: {fileID: 0}
    - target: {fileID: 3399550903190959424, guid: 13423bf658a004649b1966be1944cd8e,
        type: 3}
      propertyPath: m_LocalRotation.z
      value: -0
      objectReference: {fileID: 0}
    - target: {fileID: 3399550903190959424, guid: 13423bf658a004649b1966be1944cd8e,
        type: 3}
      propertyPath: m_LocalRotation.w
      value: 1
      objectReference: {fileID: 0}
    - target: {fileID: 3399550903190959424, guid: 13423bf658a004649b1966be1944cd8e,
        type: 3}
      propertyPath: m_RootOrder
      value: 0
      objectReference: {fileID: 0}
    - target: {fileID: 3399550903190959424, guid: 13423bf658a004649b1966be1944cd8e,
        type: 3}
      propertyPath: m_LocalEulerAnglesHint.x
      value: 0
      objectReference: {fileID: 0}
    - target: {fileID: 3399550903190959424, guid: 13423bf658a004649b1966be1944cd8e,
        type: 3}
      propertyPath: m_LocalEulerAnglesHint.y
      value: 0
      objectReference: {fileID: 0}
    - target: {fileID: 3399550903190959424, guid: 13423bf658a004649b1966be1944cd8e,
        type: 3}
      propertyPath: m_LocalEulerAnglesHint.z
      value: 0
      objectReference: {fileID: 0}
    - target: {fileID: 3399550903190959428, guid: 13423bf658a004649b1966be1944cd8e,
        type: 3}
      propertyPath: m_LocalScale.z
      value: 1.1854563
      objectReference: {fileID: 0}
    - target: {fileID: 3399550903190959430, guid: 13423bf658a004649b1966be1944cd8e,
        type: 3}
      propertyPath: m_LocalPosition.x
      value: 0.104
      objectReference: {fileID: 0}
    - target: {fileID: 3399550903190959430, guid: 13423bf658a004649b1966be1944cd8e,
        type: 3}
      propertyPath: m_LocalPosition.y
      value: -0.589
      objectReference: {fileID: 0}
    - target: {fileID: 3399550903190959430, guid: 13423bf658a004649b1966be1944cd8e,
        type: 3}
      propertyPath: m_LocalPosition.z
      value: -0.245
      objectReference: {fileID: 0}
    - target: {fileID: 3399550903190959482, guid: 13423bf658a004649b1966be1944cd8e,
        type: 3}
      propertyPath: m_LocalPosition.y
      value: -0.568
      objectReference: {fileID: 0}
    - target: {fileID: 3399550903190959482, guid: 13423bf658a004649b1966be1944cd8e,
        type: 3}
      propertyPath: m_LocalPosition.z
      value: 0.598
      objectReference: {fileID: 0}
    m_RemovedComponents: []
  m_SourcePrefab: {fileID: 100100000, guid: 13423bf658a004649b1966be1944cd8e, type: 3}
--- !u!1 &8425890105859971428 stripped
GameObject:
  m_CorrespondingSourceObject: {fileID: 109769164051684750, guid: 13423bf658a004649b1966be1944cd8e,
    type: 3}
  m_PrefabInstance: {fileID: 8460922371523773674}
  m_PrefabAsset: {fileID: 0}
