%YAML 1.1
%TAG !u! tag:unity3d.com,2011:
--- !u!114 &11400000
MonoBehaviour:
  m_ObjectHideFlags: 0
  m_CorrespondingSourceObject: {fileID: 0}
  m_PrefabInstance: {fileID: 0}
  m_PrefabAsset: {fileID: 0}
  m_GameObject: {fileID: 0}
  m_Enabled: 1
  m_EditorHideFlags: 0
  m_Script: {fileID: 11500000, guid: 4eb12ed9873c45a47a1474e59a82552d, type: 3}
  m_Name: slot_04
  m_EditorClassIdentifier: 
  position: {x: -3, y: 1.8, z: -3.21}
  building: {fileID: 11400000, guid: 850e3b8d3c95f4f4dab9bfd1fa41f423, type: 2}
  occupiedFromStart: 0
