%YAML 1.1
%TAG !u! tag:unity3d.com,2011:
--- !u!1 &1214555914413954
GameObject:
  m_ObjectHideFlags: 0
  m_CorrespondingSourceObject: {fileID: 0}
  m_PrefabInstance: {fileID: 0}
  m_PrefabAsset: {fileID: 0}
  serializedVersion: 6
  m_Component:
  - component: {fileID: 4540362333026726}
  - component: {fileID: 137437414507828142}
  - component: {fileID: 95607541119452366}
  m_Layer: 0
  m_Name: woman-zombie-simple
  m_TagString: Untagged
  m_Icon: {fileID: 0}
  m_NavMeshLayer: 0
  m_StaticEditorFlags: 0
  m_IsActive: 1
--- !u!4 &4540362333026726
Transform:
  m_ObjectHideFlags: 0
  m_CorrespondingSourceObject: {fileID: 0}
  m_PrefabInstance: {fileID: 0}
  m_PrefabAsset: {fileID: 0}
  m_GameObject: {fileID: 1214555914413954}
  m_LocalRotation: {x: 0, y: 0, z: 0, w: 1}
  m_LocalPosition: {x: 0, y: 0, z: 0}
  m_LocalScale: {x: 1, y: 1, z: 1}
  m_Children: []
  m_Father: {fileID: 0}
  m_RootOrder: 0
  m_LocalEulerAnglesHint: {x: 0, y: 0, z: 0}
--- !u!137 &137437414507828142
SkinnedMeshRenderer:
  m_ObjectHideFlags: 0
  m_CorrespondingSourceObject: {fileID: 0}
  m_PrefabInstance: {fileID: 0}
  m_PrefabAsset: {fileID: 0}
  m_GameObject: {fileID: 1214555914413954}
  m_Enabled: 1
  m_CastShadows: 1
  m_ReceiveShadows: 1
  m_DynamicOccludee: 1
  m_MotionVectors: 1
  m_LightProbeUsage: 1
  m_ReflectionProbeUsage: 1
  m_RenderingLayerMask: 1
  m_RendererPriority: 0
  m_Materials:
  - {fileID: 2100000, guid: f9c4a99059a34d842b70997d0245fde2, type: 2}
  - {fileID: 2100000, guid: 48b31daa83ddb854fadd9402702394e4, type: 2}
  - {fileID: 2100000, guid: 87ff71ffc286b91449d2296928632aed, type: 2}
  - {fileID: 2100000, guid: 579080bda9f89ee42a5447d6d997e266, type: 2}
  - {fileID: 2100000, guid: 12ca79d1906ac624994fa91e85880fb8, type: 2}
  - {fileID: 2100000, guid: 4b6c16c8bf29c9e40bc66796d0674b6e, type: 2}
  - {fileID: 2100000, guid: a7862d5615928c34e868320de65c2777, type: 2}
  m_StaticBatchInfo:
    firstSubMesh: 0
    subMeshCount: 0
  m_StaticBatchRoot: {fileID: 0}
  m_ProbeAnchor: {fileID: 0}
  m_LightProbeVolumeOverride: {fileID: 0}
  m_ScaleInLightmap: 1
  m_PreserveUVs: 0
  m_IgnoreNormalsForChartDetection: 0
  m_ImportantGI: 0
  m_StitchLightmapSeams: 0
  m_SelectedEditorRenderState: 3
  m_MinimumChartSize: 4
  m_AutoUVMaxDistance: 0.5
  m_AutoUVMaxAngle: 89
  m_LightmapParameters: {fileID: 0}
  m_SortingLayerID: 0
  m_SortingLayer: 0
  m_SortingOrder: 0
  serializedVersion: 2
  m_Quality: 0
  m_UpdateWhenOffscreen: 1
  m_SkinnedMotionVectors: 1
  m_Mesh: {fileID: 4300000, guid: 8b1fe16a676bb44c88f509b480d73007, type: 3}
  m_Bones: []
  m_BlendShapeWeights:
  - 100
  m_RootBone: {fileID: 0}
  m_AABB:
    m_Center: {x: 0, y: 0.9278031, z: 0.20824309}
    m_Extent: {x: 0.80085874, y: 0.9214148, z: 0.37547177}
  m_DirtyAABB: 0
--- !u!95 &95607541119452366
Animator:
  serializedVersion: 3
  m_ObjectHideFlags: 0
  m_CorrespondingSourceObject: {fileID: 0}
  m_PrefabInstance: {fileID: 0}
  m_PrefabAsset: {fileID: 0}
  m_GameObject: {fileID: 1214555914413954}
  m_Enabled: 1
  m_Avatar: {fileID: 9000000, guid: 8b1fe16a676bb44c88f509b480d73007, type: 3}
  m_Controller: {fileID: 0}
  m_CullingMode: 1
  m_UpdateMode: 0
  m_ApplyRootMotion: 0
  m_LinearVelocityBlending: 0
  m_WarningMessage: 
  m_HasTransformHierarchy: 1
  m_AllowConstantClipSamplingOptimization: 1
  m_KeepAnimatorControllerStateOnDisable: 0
