%YAML 1.1
%TAG !u! tag:unity3d.com,2011:
--- !u!114 &11400000
MonoBehaviour:
  m_ObjectHideFlags: 0
  m_CorrespondingSourceObject: {fileID: 0}
  m_PrefabInstance: {fileID: 0}
  m_PrefabAsset: {fileID: 0}
  m_GameObject: {fileID: 0}
  m_Enabled: 1
  m_EditorHideFlags: 0
  m_Script: {fileID: 11500000, guid: c237754c3e6c15c4595859edb8d72c19, type: 3}
  m_Name: ServerController
  m_EditorClassIdentifier: 
  serializationData:
    SerializedFormat: 2
    SerializedBytes: 
    ReferencedUnityObjects: []
    SerializedBytesString: 
    Prefab: {fileID: 0}
    PrefabModificationsReferencedUnityObjects: []
    PrefabModifications: []
    SerializationNodes:
    - Name: onElapsedTimeCalculated
      Entry: 7
      Data: 0|GreenLoveEvent`1[[System.Double, mscorlib]], Assembly-CSharp
    - Name: m_PersistentCalls
      Entry: 7
      Data: 1|UnityEngine.Events.PersistentCallGroup, UnityEngine.CoreModule
    - Name: m_Calls
      Entry: 7
      Data: 2|System.Collections.Generic.List`1[[UnityEngine.Events.PersistentCall,
        UnityEngine.CoreModule]], mscorlib
    - Name: 
      Entry: 12
      Data: 0
    - Name: 
      Entry: 13
      Data: 
    - Name: 
      Entry: 8
      Data: 
    - Name: 
      Entry: 8
      Data: 
    - Name: 
      Entry: 8
      Data: 
    - Name: onServerTime
      Entry: 7
      Data: 3|GreenLoveEvent`1[[System.Collections.Generic.KeyValuePair`2[[System.String,
        mscorlib],[System.Double, mscorlib]], mscorlib]], Assembly-CSharp
    - Name: m_PersistentCalls
      Entry: 7
      Data: 4|UnityEngine.Events.PersistentCallGroup, UnityEngine.CoreModule
    - Name: m_Calls
      Entry: 7
      Data: 5|System.Collections.Generic.List`1[[UnityEngine.Events.PersistentCall,
        UnityEngine.CoreModule]], mscorlib
    - Name: 
      Entry: 12
      Data: 0
    - Name: 
      Entry: 13
      Data: 
    - Name: 
      Entry: 8
      Data: 
    - Name: 
      Entry: 8
      Data: 
    - Name: 
      Entry: 8
      Data: 
  serverTimestamp: 1598166132
  analyticEventNames:
  - PurchaseIAP
  - SpendHC
  - GainHC
  - LackHC
  - SpendHC
  - GainSC
  - LackSC
  - SpendSC
  - Interstitial
  - RewardedAd
  - TutorialStart
  - TutorialEnd
  - AddBuilding
  - UpgradeBuilding
  - ImproveBuilding
  - AddBuff
  - ImproveBuff
  - NewAlpha
  - AlphaStateChange
  - AlphaClaimGift
  - QuestComplete
  - NewPrestige
