%YAML 1.1
%TAG !u! tag:unity3d.com,2011:
--- !u!114 &11400000
MonoBehaviour:
  m_ObjectHideFlags: 0
  m_CorrespondingSourceObject: {fileID: 0}
  m_PrefabInstance: {fileID: 0}
  m_PrefabAsset: {fileID: 0}
  m_GameObject: {fileID: 0}
  m_Enabled: 1
  m_EditorHideFlags: 0
  m_Script: {fileID: 11500000, guid: ef084fab69e00e84282802f2d0d3040d, type: 3}
  m_Name: RecruitAnimalsTutorial
  m_EditorClassIdentifier: 
  locPrefix: 
  conversation:
  - usesText: 1
    text:
      stringVariable: {fileID: 0}
      constant: 
      locKey: TUTORIAL_RECRUITANIMALS_1
      locValue: "Presiona este bot\xF3n para llamar a mascotas sin hogar"
      lang: 1
      usedValue: 2
      loc: {fileID: 11400000, guid: a37450c4e762fd048bf828a2e93544cc, type: 2}
    textPosY: -0.4
    usesColorModule: 0
    overlayColor: {r: 0, g: 0, b: 0, a: 0.6}
    colorTag: main_dark
    overlayAlpha: 0.7
    canSkipByTouchingTheBackground: 0
    featuresSomething: 1
    instantiateDueMissingInScene: 1
    unlockableContent: 0
    isSomethingIn3D: 0
    cameraFollow: 0
    pathInHierarchy: CallButton
    usesArrow: 1
    distanceFromParent: 230
    angleFromParent: 90
    flowNextMethod: 0
    listenedCurrency: 0
    bank: {fileID: 0}
    targetValue: 0
    parent: {fileID: 11400000}
  - usesText: 1
    text:
      stringVariable: {fileID: 0}
      constant: "\xA1Cuanto m\xE1s apretes, m\xE1s vendran!"
      locKey: TUTORIAL_RECRUITANIMALS_2
      locValue: "\xA1Cuanto m\xE1s r\xE1pido aprietes, m\xE1s vendr\xE1n!"
      lang: 1
      usedValue: 2
      loc: {fileID: 11400000, guid: a37450c4e762fd048bf828a2e93544cc, type: 2}
    textPosY: 0.7
    usesColorModule: 0
    overlayColor: {r: 0, g: 0, b: 0, a: 0.6}
    colorTag: 
    overlayAlpha: 0.7
    canSkipByTouchingTheBackground: 1
    featuresSomething: 1
    instantiateDueMissingInScene: 1
    unlockableContent: 5
    isSomethingIn3D: 0
    cameraFollow: 0
    pathInHierarchy: PetsGauge
    usesArrow: 0
    distanceFromParent: 200
    angleFromParent: 311
    flowNextMethod: 0
    listenedCurrency: 0
    bank: {fileID: 0}
    targetValue: 0
    parent: {fileID: 11400000}
  - usesText: 1
    text:
      stringVariable: {fileID: 0}
      constant: "\xA1Cuanto m\xE1s apretes, m\xE1s vendran!"
      locKey: TUTORIAL_RECRUITANIMALS_5
      locValue: "Y cada mascota que llegue a tu casa te ayudar\xE1 a ganar algo de
        oro"
      lang: 1
      usedValue: 2
      loc: {fileID: 11400000, guid: a37450c4e762fd048bf828a2e93544cc, type: 2}
    textPosY: 0.7
    usesColorModule: 0
    overlayColor: {r: 0, g: 0, b: 0, a: 0}
    colorTag: 
    overlayAlpha: 0.5
    canSkipByTouchingTheBackground: 1
    featuresSomething: 1
    instantiateDueMissingInScene: 1
    unlockableContent: 6
    isSomethingIn3D: 0
    cameraFollow: 0
    pathInHierarchy: GoldGauge
    usesArrow: 0
    distanceFromParent: 0
    angleFromParent: 0
    flowNextMethod: 0
    listenedCurrency: 0
    bank: {fileID: 0}
    targetValue: 0
    parent: {fileID: 11400000}
  - usesText: 1
    text:
      stringVariable: {fileID: 0}
      constant: 
      locKey: TUTORIAL_RECRUITANIMALS_3
      locValue: "\xA1Toca el bot\xF3n r\xE1pido!"
      lang: 0
      usedValue: 2
      loc: {fileID: 11400000, guid: a37450c4e762fd048bf828a2e93544cc, type: 2}
    textPosY: -0.6
    usesColorModule: 0
    overlayColor: {r: 0, g: 0, b: 0, a: 0}
    colorTag: 
    overlayAlpha: 0
    canSkipByTouchingTheBackground: 0
    featuresSomething: 1
    instantiateDueMissingInScene: 1
    unlockableContent: 10
    isSomethingIn3D: 0
    cameraFollow: 0
    pathInHierarchy: CallButton
    usesArrow: 0
    distanceFromParent: 230
    angleFromParent: 90
    flowNextMethod: 1
    listenedCurrency: 34
    bank: {fileID: 11400000, guid: f2fe68f853d707941902bffa11e94ed3, type: 2}
    targetValue: 5
    parent: {fileID: 11400000}
  - usesText: 1
    text:
      stringVariable: {fileID: 0}
      constant: 
      locKey: TUTORIAL_RECRUITANIMALS_4
      locValue: "\xA1Mas r\xE1pido!"
      lang: 0
      usedValue: 2
      loc: {fileID: 11400000, guid: a37450c4e762fd048bf828a2e93544cc, type: 2}
    textPosY: -0.6
    usesColorModule: 0
    overlayColor: {r: 0, g: 0, b: 0, a: 0}
    colorTag: 
    overlayAlpha: 0
    canSkipByTouchingTheBackground: 0
    featuresSomething: 1
    instantiateDueMissingInScene: 0
    unlockableContent: 0
    isSomethingIn3D: 0
    cameraFollow: 0
    pathInHierarchy: CallButton
    usesArrow: 0
    distanceFromParent: 0
    angleFromParent: 0
    flowNextMethod: 1
    listenedCurrency: 34
    bank: {fileID: 11400000, guid: f2fe68f853d707941902bffa11e94ed3, type: 2}
    targetValue: 8
    parent: {fileID: 11400000}
  index: 4
  hasBeenDisplayed: 1
  hasFinished: 0
  parent:
    tutorials: {fileID: 11400000, guid: d4fb8800a79339548b4a185d13bd55fa, type: 2}
    tutorialQuests: {fileID: 11400000, guid: dd1547f826c60b3469139252bcdd1cf0, type: 2}
    questWeights: {fileID: 11400000, guid: aff7f8e4bd2a5cb418841291a44479a2, type: 2}
    activeQuests:
    - {fileID: 11400000, guid: d71f34167e5cbdf4fa7f4c7ebd00df23, type: 2}
    - {fileID: 11400000, guid: 980c5993e29185f49b4d0e36e0d42a54, type: 2}
    - {fileID: 11400000, guid: 9d783e1997a61614d8a6f0836989b7cd, type: 2}
    maxAmountOfAvailableQuests: 3
    activeTutorial: 0
    peekedQuest: {fileID: 0}
    parent: {fileID: 11400000, guid: 4ef71fc2113fd614f9228e030de21e16, type: 2}
  star: {fileID: 0}
