%YAML 1.1
%TAG !u! tag:unity3d.com,2011:
--- !u!114 &11400000
MonoBehaviour:
  m_ObjectHideFlags: 0
  m_CorrespondingSourceObject: {fileID: 0}
  m_PrefabInstance: {fileID: 0}
  m_PrefabAsset: {fileID: 0}
  m_GameObject: {fileID: 0}
  m_Enabled: 1
  m_EditorHideFlags: 0
  m_Script: {fileID: 11500000, guid: ef084fab69e00e84282802f2d0d3040d, type: 3}
  m_Name: StockRestaurantTutorial
  m_EditorClassIdentifier: 
  locPrefix: 
  conversation:
  - usesText: 1
    text:
      stringVariable: {fileID: 0}
      constant: "\xA1En la taberna seguro que encontramos algo!"
      locKey: TUTORIAL_STOCK_RESTAURANT_0
      locValue: Este es el restaurante
      lang: 0
      usedValue: 2
      loc: {fileID: 11400000, guid: a37450c4e762fd048bf828a2e93544cc, type: 2}
    textPosY: 0.3
    usesColorModule: 0
    overlayColor: {r: 0, g: 0, b: 0, a: 0.5}
    colorTag: 
    overlayAlpha: 0.7
    canSkipByTouchingTheBackground: 0
    featuresSomething: 1
    instantiateDueMissingInScene: 0
    unlockableContent: 0
    isSomethingIn3D: 1
    cameraFollow: 0
    pathInHierarchy: Tavern
    usesArrow: 0
    distanceFromParent: 0
    angleFromParent: 0
    flowNextMethod: 0
    listenedCurrency: 0
    bank: {fileID: 0}
    targetValue: 0
    parent: {fileID: 11400000}
  - usesText: 0
    text:
      stringVariable: {fileID: 0}
      constant: 
      locKey: 
      locValue: 
      lang: 0
      usedValue: 0
      loc: {fileID: 0}
    textPosY: 0
    usesColorModule: 0
    overlayColor: {r: 0, g: 0, b: 0, a: 0}
    colorTag: 
    overlayAlpha: 0
    canSkipByTouchingTheBackground: 1
    featuresSomething: 0
    instantiateDueMissingInScene: 0
    unlockableContent: 0
    isSomethingIn3D: 0
    cameraFollow: 0
    pathInHierarchy: 
    usesArrow: 0
    distanceFromParent: 0
    angleFromParent: 0
    flowNextMethod: 0
    listenedCurrency: 0
    bank: {fileID: 0}
    targetValue: 0
    parent: {fileID: 11400000}
  - usesText: 1
    text:
      stringVariable: {fileID: 0}
      constant: 
      locKey: TUTORIAL_STOCK_RESTAURANT_2
      locValue: "Aqu\xED puedes ver la comida que ofrece. "
      lang: 0
      usedValue: 2
      loc: {fileID: 11400000, guid: a37450c4e762fd048bf828a2e93544cc, type: 2}
    textPosY: 0.12
    usesColorModule: 0
    overlayColor: {r: 0, g: 0, b: 0, a: 0}
    colorTag: 
    overlayAlpha: 0.7
    canSkipByTouchingTheBackground: 0
    featuresSomething: 1
    instantiateDueMissingInScene: 0
    unlockableContent: 0
    isSomethingIn3D: 0
    cameraFollow: 0
    pathInHierarchy: BuildingPopUp/Content/serviceUpgrade
    usesArrow: 0
    distanceFromParent: 180
    angleFromParent: 90
    flowNextMethod: 0
    listenedCurrency: 0
    bank: {fileID: 0}
    targetValue: 0
    parent: {fileID: 11400000}
  - usesText: 1
    text:
      stringVariable: {fileID: 0}
      constant: 
      locKey: TUTORIAL_STOCK_RESTAURANT_3
      locValue: Para que los animales puedan comer, es necesario que haya comida
        suficiente.
      lang: 0
      usedValue: 2
      loc: {fileID: 11400000, guid: a37450c4e762fd048bf828a2e93544cc, type: 2}
    textPosY: -0.05
    usesColorModule: 0
    overlayColor: {r: 0, g: 0, b: 0, a: 0}
    colorTag: 
    overlayAlpha: 0.7
    canSkipByTouchingTheBackground: 0
    featuresSomething: 1
    instantiateDueMissingInScene: 0
    unlockableContent: 0
    isSomethingIn3D: 0
    cameraFollow: 0
    pathInHierarchy: BuildingPopUp/Content/serviceUpgrade/StockLayout/CurrencyButton
    usesArrow: 1
    distanceFromParent: 170
    angleFromParent: 90
    flowNextMethod: 0
    listenedCurrency: 0
    bank: {fileID: 0}
    targetValue: 0
    parent: {fileID: 11400000}
  index: 4
  hasBeenDisplayed: 1
  hasFinished: 1
  parent:
    tutorials: {fileID: 11400000, guid: d4fb8800a79339548b4a185d13bd55fa, type: 2}
    tutorialQuests: {fileID: 11400000, guid: dd1547f826c60b3469139252bcdd1cf0, type: 2}
    questWeights: {fileID: 11400000, guid: aff7f8e4bd2a5cb418841291a44479a2, type: 2}
    activeQuests:
    - {fileID: 11400000, guid: 597939b68b7cac845955ef37dd40ae2e, type: 2}
    - {fileID: 11400000, guid: c55f16c6a58c3c94096c32ff36b6040e, type: 2}
    - {fileID: 11400000, guid: 2f3c5a950b562b942bc8739ae4318b2d, type: 2}
    maxAmountOfAvailableQuests: 3
    activeTutorial: 11
    peekedQuest: {fileID: 0}
    parent: {fileID: 11400000, guid: 4ef71fc2113fd614f9228e030de21e16, type: 2}
  star: {fileID: 0}
