%YAML 1.1
%TAG !u! tag:unity3d.com,2011:
--- !u!114 &11400000
MonoBehaviour:
  m_ObjectHideFlags: 0
  m_CorrespondingSourceObject: {fileID: 0}
  m_PrefabInstance: {fileID: 0}
  m_PrefabAsset: {fileID: 0}
  m_GameObject: {fileID: 0}
  m_Enabled: 1
  m_EditorHideFlags: 0
  m_Script: {fileID: 11500000, guid: 548824825a7beb643936bc356adeb1d0, type: 3}
  m_Name: Themes
  m_EditorClassIdentifier: 
  playlistBatchImportMode: 1
  showPlaylists: 0
  showPlayers: 1
  playlists:
  - id: 558324730
    name: theme_1
    tracks:
    - clip: {fileID: 8300000, guid: 7cd5c72c6b164cb43be39796587a9910, type: 3}
      volume: 1
    unfolded: 1
    audioClipManagementMode: 1
    audioClipUnloadInterval: 60
    overrideAudioClipManagement: 0
  - id: 1849674776
    name: theme_2
    tracks:
    - clip: {fileID: 8300000, guid: 54beba7a70e1c6342933c5075dbae380, type: 3}
      volume: 1
    unfolded: 1
    audioClipManagementMode: 1
    audioClipUnloadInterval: 60
    overrideAudioClipManagement: 0
  - id: 1447969159
    name: theme_3
    tracks:
    - clip: {fileID: 8300000, guid: aab5d0433eb0a1048950c6bd8f1ced4f, type: 3}
      volume: 1
    unfolded: 1
    audioClipManagementMode: 1
    audioClipUnloadInterval: 60
    overrideAudioClipManagement: 0
  - id: 1693644149
    name: prestige
    tracks:
    - clip: {fileID: 8300000, guid: 6a0ed6180624b4748ae76ceb8e85b437, type: 3}
      volume: 1
    unfolded: 1
    audioClipManagementMode: 1
    audioClipUnloadInterval: 60
    overrideAudioClipManagement: 0
  players:
  - id: 872444978
    name: Master
    mixerGroup: {fileID: 24300002, guid: aae8fe6a6e375164fa926103ee33526e, type: 2}
    syncGroup: 0
    playbackMode: 0
    shuffle: 0
    loop: 1
    playOnStart: 0
    fade: 0.5
    volume: 0.6
    muted: 0
    soloed: 0
    unfolded: 1
  - id: 2060831270
    name: Prestige
    mixerGroup: {fileID: 0}
    syncGroup: 0
    playbackMode: 1
    shuffle: 0
    loop: 0
    playOnStart: 0
    fade: 0.5
    volume: 1
    muted: 0
    soloed: 0
    unfolded: 1
  playlistIndices: ffffffffffffffff
  playlistManagementMode: 1
  playlistUnloadInterval: 60
