%YAML 1.1
%TAG !u! tag:unity3d.com,2011:
--- !u!114 &11400000
MonoBehaviour:
  m_ObjectHideFlags: 0
  m_CorrespondingSourceObject: {fileID: 0}
  m_PrefabInstance: {fileID: 0}
  m_PrefabAsset: {fileID: 0}
  m_GameObject: {fileID: 0}
  m_Enabled: 1
  m_EditorHideFlags: 0
  m_Script: {fileID: 11500000, guid: 09433acc720560b498e90e7009b5bd9b, type: 3}
  m_Name: Market
  m_EditorClassIdentifier: 
  textsID: 
  isSpawner: 0
  isBuildable: 0
  isDestructibleOnPrestige: 1
  position: {x: -15.616785, y: 2, z: -6.0879927}
  basePrice: 0
  priceMultiplier: 0
  locController: {fileID: 11400000, guid: a37450c4e762fd048bf828a2e93544cc, type: 2}
  context: {fileID: 11400000, guid: 4ef71fc2113fd614f9228e030de21e16, type: 2}
  warningParticle: {fileID: 0}
  activeSegment: 0
  segments:
  - index: 0
    isPurchased: 1
    price: 0
    buildingEvo: {fileID: 2114829603832974711, guid: 6858a278b70605f4b8142c6ae96024b0,
      type: 3}
    stockConstant: 0
    stockAmount: 0
    stockPrice: 0
    rangeSteps: 100
    currentStep: 0
    range: {x: 0, y: 0}
    upgradeTitles:
    - '[_NAME_00: Value not found]'
    - '[_NAME_01: Value not found]'
    upgradeDescriptions:
    - '[_DESC_00: Value not found]'
    - '[_DESC_01: Value not found]'
  maxSpeed: 0.05
  arrivedDistance: 8.1
  obj: {fileID: 0}
  startPosition: {x: -4, y: 2, z: -25}
