%YAML 1.1
%TAG !u! tag:unity3d.com,2011:
--- !u!114 &11400000
MonoBehaviour:
  m_ObjectHideFlags: 0
  m_CorrespondingSourceObject: {fileID: 0}
  m_PrefabInstance: {fileID: 0}
  m_PrefabAsset: {fileID: 0}
  m_GameObject: {fileID: 0}
  m_Enabled: 1
  m_EditorHideFlags: 0
  m_Script: {fileID: 11500000, guid: d0039e57a85223e4cb08b459c67548ca, type: 3}
  m_Name: spawner_in_1
  m_EditorClassIdentifier: 
  textsID: 
  isSpawner: 1
  isBuildable: 0
  isDestructibleOnPrestige: 0
  position: {x: -15.71, y: 1.857, z: 5.8300004}
  basePrice: 0
  priceMultiplier: 0
  locController: {fileID: 0}
  context: {fileID: 11400000, guid: 4ef71fc2113fd614f9228e030de21e16, type: 2}
  warningParticle: {fileID: 0}
  activeSegment: 0
  segments: []
