%YAML 1.1
%TAG !u! tag:unity3d.com,2011:
--- !u!114 &11400000
MonoBehaviour:
  m_ObjectHideFlags: 0
  m_CorrespondingSourceObject: {fileID: 0}
  m_PrefabInstance: {fileID: 0}
  m_PrefabAsset: {fileID: 0}
  m_GameObject: {fileID: 0}
  m_Enabled: 1
  m_EditorHideFlags: 0
  m_Script: {fileID: 11500000, guid: 55b1e999ef167cb45869021d71cedbf3, type: 3}
  m_Name: TownHall
  m_EditorClassIdentifier: 
  textsID: 
  isSummoner: 0
  isBuildable: 1
  position: {x: -4.06, y: 1.8, z: 1.1}
  basePrice: 0
  priceMultiplier: 0
  locController: {fileID: 11400000, guid: a37450c4e762fd048bf828a2e93544cc, type: 2}
  context: {fileID: 11400000, guid: 4ef71fc2113fd614f9228e030de21e16, type: 2}
  warningParticle: {fileID: 0}
  activeSegment: 0
  segments:
  - index: 0
    isPurchased: 0
    price: 100
    buildingEvo: {fileID: 2109822406863050247, guid: 2c544031e67e9904fba90c209f50e779,
      type: 3}
    stockConstant: 0
    stockAmount: 0
    stockPrice: 0
    rangeSteps: 100
    currentStep: 0
    range: {x: 0, y: 0}
    upgradeTitles:
    - '[_NAME_00: Value not found]'
    - '[_NAME_01: Value not found]'
    upgradeDescriptions:
    - '[_DESC_00: Value not found]'
    - '[_DESC_01: Value not found]'
