%YAML 1.1
%TAG !u! tag:unity3d.com,2011:
--- !u!114 &11400000
MonoBehaviour:
  m_ObjectHideFlags: 0
  m_CorrespondingSourceObject: {fileID: 0}
  m_PrefabInstance: {fileID: 0}
  m_PrefabAsset: {fileID: 0}
  m_GameObject: {fileID: 0}
  m_Enabled: 1
  m_EditorHideFlags: 0
  m_Script: {fileID: 11500000, guid: 53b2dde08b587304d83fcceb383a8f3f, type: 3}
  m_Name: GentleWorld
  m_EditorClassIdentifier: 
  itemName:
    stringVariable: {fileID: 0}
    constant: 
    locKey: GENTLE_WORLD_NAME
    locValue: GLOBOS
    lang: 0
    usedValue: 2
    loc: {fileID: 11400000, guid: a37450c4e762fd048bf828a2e93544cc, type: 2}
  amount:
    doubleVariable: {fileID: 0}
    constant: 0
    useConst: 1
  weigth: 180
  accumulatedWeight: 7070
  slot: -1
  bgColor: {r: 0.7686275, g: 0.90196085, b: 0.78823537, a: 1}
