%YAML 1.1
%TAG !u! tag:unity3d.com,2011:
--- !u!114 &11400000
MonoBehaviour:
  m_ObjectHideFlags: 0
  m_CorrespondingSourceObject: {fileID: 0}
  m_PrefabInstance: {fileID: 0}
  m_PrefabAsset: {fileID: 0}
  m_GameObject: {fileID: 0}
  m_Enabled: 1
  m_EditorHideFlags: 0
  m_Script: {fileID: 11500000, guid: 53b2dde08b587304d83fcceb383a8f3f, type: 3}
  m_Name: Singularity
  m_EditorClassIdentifier: 
  itemName:
    stringVariable: {fileID: 0}
    constant: 
    locKey: SINGULARITY_NAME
    locValue: LUZ EMBOTELLADA
    lang: 0
    usedValue: 2
    loc: {fileID: 11400000, guid: a37450c4e762fd048bf828a2e93544cc, type: 2}
  amount:
    doubleVariable: {fileID: 0}
    constant: 1.015512028358051
    useConst: 1
  weigth: 100
  accumulatedWeight: 7490
  slot: 11
  bgColor: {r: 0.80392164, g: 0.7843138, b: 0.86274517, a: 1}
