%YAML 1.1
%TAG !u! tag:unity3d.com,2011:
--- !u!114 &11400000
MonoBehaviour:
  m_ObjectHideFlags: 0
  m_CorrespondingSourceObject: {fileID: 0}
  m_PrefabInstance: {fileID: 0}
  m_PrefabAsset: {fileID: 0}
  m_GameObject: {fileID: 0}
  m_Enabled: 1
  m_EditorHideFlags: 0
  m_Script: {fileID: 11500000, guid: bc784f3fe3af59c4aa1787ff13cf6a06, type: 3}
  m_Name: config
  m_EditorClassIdentifier: 
  game: flocking
  buildNumber: 3
  lastDay: 18512
  cloud: 0
  cloudFirebase: 0
  firebaseUrl: 
  crossPromotion: 0
  audio: 0
  serverConfig: 1
  serverConfigFirebase: 0
  serverConfigDeltaDNA: 0
  serverConfigGameAnalytics: 0
  analytics: 1
  analyticsFirebase: 0
  analyticsDeltaDNA: 0
  analyticsGameAnalytics: 0
  analyticsUnityAnalytics: 0
  analyticsAmplitude: 0
  analyticsAmplitudeKey: 
  ads: 1
  adsTest: 1
  adsTestBuild: 0
  adsIronsource: 1
  adsIronsourceInterstitial: 1
  adsIronsourceVideo: 1
  adsIronsourceServerKey: 0
  adsIronsourceAppleID: d4ca3a6d
  adsIronsourceAndroidID: d4ca73f5
  adsIronsourceAdmob: 1
  adsAdmobAppleID: ca-app-pub-9730396413202772~8515912592
  adsAdmobAndroidID: ca-app-pub-9730396413202772~5562446190
  gCenter: 1
  gCenterGoogle: 0
  gCenterApple: 0
  purchases: 1
  purchasesGoogle: 0
  purchasesApple: 0
  localization: 0
  languages: 
  notifications: 1
  share: 0
  share_debug: 0
  share_tool: 0
  codes: 1
  codeAdminPassword: D7nu6B9dCcwztbPm
  debug: 1
  debugForced: 0
  debugEditor: 1
  debugShow: 0
  debugShowForced: 0
  legal: 0
  showConsent: 0
  showConsentAlways: 0
  privacyURL: 
  timeEvents: 0
  firebaseFunctions: 0
  recoverSaveCount: 0
  firebaseFunctionsURL: 
