%YAML 1.1
%TAG !u! tag:unity3d.com,2011:
--- !u!114 &11400000
MonoBehaviour:
  m_ObjectHideFlags: 0
  m_CorrespondingSourceObject: {fileID: 0}
  m_PrefabInstance: {fileID: 0}
  m_PrefabAsset: {fileID: 0}
  m_GameObject: {fileID: 0}
  m_Enabled: 1
  m_EditorHideFlags: 0
  m_Script: {fileID: 11500000, guid: cbfe5e03c41878c4b93c6f0265b51e92, type: 3}
  m_Name: ShopGroup
  m_EditorClassIdentifier: 
  items:
  - {fileID: 7215618136149804980, guid: 40fddc18007218c4e8e3e8b217f9dac1, type: 3}
  - {fileID: 7619869487329049066, guid: b3e006a6a2175664e931c446b0c0141e, type: 3}
  - {fileID: 7858019293889607147, guid: 2a78827a0ceaabe4ca274a82671024a0, type: 3}
  - {fileID: 103098030905292961, guid: 8b05761ca791ee64e8b36cdbf181e72c, type: 3}
  - {fileID: 4557080439419956849, guid: dfb8304b192a4404fa0f5a09822de998, type: 3}
  enumName: UIShopGroup
