%YAML 1.1
%TAG !u! tag:unity3d.com,2011:
--- !u!114 &11400000
MonoBehaviour:
  m_ObjectHideFlags: 0
  m_CorrespondingSourceObject: {fileID: 0}
  m_PrefabInstance: {fileID: 0}
  m_PrefabAsset: {fileID: 0}
  m_GameObject: {fileID: 0}
  m_Enabled: 1
  m_EditorHideFlags: 0
  m_Script: {fileID: 11500000, guid: cbfe5e03c41878c4b93c6f0265b51e92, type: 3}
  m_Name: TownHallGroup
  m_EditorClassIdentifier: 
  items:
  - {fileID: 554863074893683358, guid: 719d9f51f959b1348bf3b4f0212183ca, type: 3}
  - {fileID: 4637329345344559918, guid: 7b864b9298550084aaa698636bf182af, type: 3}
  - {fileID: 5927066081076579191, guid: 46f0e8182cf1fdf4a885247cf60c094f, type: 3}
  - {fileID: 4578604160746215468, guid: 58d742de498b86c4183f1ed2bcaec87f, type: 3}
  enumName: TownHallViewGroup
